hw04
================
kioke

Make a tibble with one row per year and columns for life expectancy for two or more countries.

    Use knitr::kable() to make this table look pretty in your rendered homework.
    Take advantage of this new data shape to scatterplot life expectancy for one country against that of another.

``` r
gapminder %>% 
  filter(country == "Brazil" | country == "Argentina")
```

    ## # A tibble: 24 x 6
    ##    country   continent  year lifeExp      pop gdpPercap
    ##    <fct>     <fct>     <int>   <dbl>    <int>     <dbl>
    ##  1 Argentina Americas   1952    62.5 17876956     5911.
    ##  2 Argentina Americas   1957    64.4 19610538     6857.
    ##  3 Argentina Americas   1962    65.1 21283783     7133.
    ##  4 Argentina Americas   1967    65.6 22934225     8053.
    ##  5 Argentina Americas   1972    67.1 24779799     9443.
    ##  6 Argentina Americas   1977    68.5 26983828    10079.
    ##  7 Argentina Americas   1982    69.9 29341374     8998.
    ##  8 Argentina Americas   1987    70.8 31620918     9140.
    ##  9 Argentina Americas   1992    71.9 33958947     9308.
    ## 10 Argentina Americas   1997    73.3 36203463    10967.
    ## # ... with 14 more rows

``` r
gather(gapminder,  key = "Soap", value = "Year", year, country)
```

    ## Warning: attributes are not identical across measure variables;
    ## they will be dropped

    ## # A tibble: 3,408 x 6
    ##    continent lifeExp      pop gdpPercap Soap  Year 
    ##    <fct>       <dbl>    <int>     <dbl> <chr> <chr>
    ##  1 Asia         28.8  8425333      779. year  1952 
    ##  2 Asia         30.3  9240934      821. year  1957 
    ##  3 Asia         32.0 10267083      853. year  1962 
    ##  4 Asia         34.0 11537966      836. year  1967 
    ##  5 Asia         36.1 13079460      740. year  1972 
    ##  6 Asia         38.4 14880372      786. year  1977 
    ##  7 Asia         39.9 12881816      978. year  1982 
    ##  8 Asia         40.8 13867957      852. year  1987 
    ##  9 Asia         41.7 16317921      649. year  1992 
    ## 10 Asia         41.8 22227415      635. year  1997 
    ## # ... with 3,398 more rows
…
To easily represent the above table in a scatter plot, the life expectancy columns need to be combined again to make them tidy, and thus more easily read into a figure.

``` r
tidy <- untidy %>% 
  gather(key = "country", value = "lifeExp", Argentina, Brazil)
tidy
```

    ## # A tibble: 24 x 3
    ##     year country   lifeExp
    ##    <int> <chr>       <dbl>
    ##  1  1952 Argentina    62.5
    ##  2  1957 Argentina    64.4
    ##  3  1962 Argentina    65.1
    ##  4  1967 Argentina    65.6
    ##  5  1972 Argentina    67.1
    ##  6  1977 Argentina    68.5
    ##  7  1982 Argentina    69.9
    ##  8  1987 Argentina    70.8
    ##  9  1992 Argentina    71.9
    ## 10  1997 Argentina    73.3
    ## # ... with 14 more rows
…
